{
    "artId": "",
    "appName": "Chatbot",
    "description": "Chatbot",
    "lastModified": "2019-08-14T07:43:17.179Z",
    "artURL": "http://localhost:3000/bhive-art/",
    "imgSourcePath": "",
    "version": "1.0.0",
    "dataSource": "neutrinos-delivery-rt",
    "createDate": "2019-08-14T07:43:17.179Z"
}
